Applied Data Science for Cities - Get started with
…
Again, a simpler and more understandable syntax.

Now let’s create a new dataset that only contains energy use records from MIT buildings and that are not missing the total GHG emission attribute. Take a look at how we achieve this using the following code, then proceed to insert a new code chunk in your document like the one below:

mit_energy <- energy |> 
  filter(Owner == "MASSACHUSETTS INSTITUTE OF TECHNOLOGY") |> 
  filter(!is.na(`Total GHG Emissions (Metric Tons CO2e)`))

mutate: create or modify columns

We can change the values in a column either based on specified values or certain transformations. For example, below we are showing how to replace the full name of the institute with “MIT”.

mit_energy |> mutate(Owner = "MIT")

# A tibble: 891 × 9
   `Data Year` `BEUDO Category` Owner `Year Built` Primary Property Type - Sel…¹
         <dbl> <chr>            <chr>        <dbl> <chr>                        
 1        2015 Non-Residential  MIT           1994 College/University           
 2        2017 Residential      MIT           1963 College/University           
 3        2021 Non-Residential  MIT           2020 Office                       
 4        2021 Non-Residential  MIT           1983 College/University           
 5        2017 Non-Residential  MIT           1916 College/University           
 6        2021 Non-Residential  MIT           1994 College/University           
 7        2018 Non-Residential  MIT           1931 College/University           
 8        2021 Non-Residential  MIT           1956 College/University           
 9        2020 Residential      MIT           1999 Multifamily Housing          
10        2016 Residential      MIT           1963 College/University           
# ℹ 881 more rows
# ℹ abbreviated name: ¹​`Primary Property Type - Self Selected`
# ℹ 4 more variables: `Total GHG Emissions (Metric Tons CO2e)` <dbl>,
#   `Total GHG Emissions Intensity (kgCO2e/ft2)` <dbl>, Longitude <dbl>,
#   Latitude <dbl>

You can also use mutate to add new columns to your data frame that are calculated from existing columns. Here we are showing how to create a new column for building ages.

mit_energy |> mutate(Building_Age = 2023 - `Year Built`)

# A tibble: 891 × 10
   `Data Year` `BEUDO Category` Owner        `Year Built` Primary Property Typ…¹
         <dbl> <chr>            <chr>               <dbl> <chr>                 
 1        2015 Non-Residential  MASSACHUSET…         1994 College/University    
 2        2017 Residential      MASSACHUSET…         1963 College/University    
 3        2021 Non-Residential  MASSACHUSET…         2020 Office                
 4        2021 Non-Residential  MASSACHUSET…         1983 College/University    
 5        2017 Non-Residential  MASSACHUSET…         1916 College/University    
 6        2021 Non-Residential  MASSACHUSET…         1994 College/University    
 7        2018 Non-Residential  MASSACHUSET…         1931 College/University    
 8        2021 Non-Residential  MASSACHUSET…         1956 College/University    
 9        2020 Residential      MASSACHUSET…         1999 Multifamily Housing   
10        2016 Residential      MASSACHUSET…         1963 College/University    
# ℹ 881 more rows
# ℹ abbreviated name: ¹​`Primary Property Type - Self Selected`
# ℹ 5 more variables: `Total GHG Emissions (Metric Tons CO2e)` <dbl>,
#   `Total GHG Emissions Intensity (kgCO2e/ft2)` <dbl>, Longitude <dbl>,
#   Latitude <dbl>, Building_Age <dbl>
…
