Applied Data Science for Cities - Exploratory Data Analysis with
…
# A tibble: 2 × 3
  DesignatedOZ   Tracts Income
  <chr>           <int>  <dbl>
1 Designated       8764 33346.
2 Not Designated  33414 44446.

We could summarize based on two groups - summarize first by state than by legibility - so that we have such comparisons for each state.

ozs |> 
  group_by(state, DesignatedOZ) |> 
  summarise(
    Income = mean(medhhincome, na.rm=TRUE))

# A tibble: 108 × 3
# Groups:   state [57]
   state          DesignatedOZ   Income
   <chr>          <chr>           <dbl>
 1 Alabama        Designated     30044.
 2 Alabama        Not Designated 36542.
 3 Alaska         Designated     49840.
 4 Alaska         Not Designated 54784.
 5 American Samoa Designated       NaN 
 6 Arizona        Designated     34373.
 7 Arizona        Not Designated 40961.
 8 Arkansas       Designated     31254.
 9 Arkansas       Not Designated 37814.
10 California     Designated     36134.
# ℹ 98 more rows

It might be useful for us to reshape our summary table so that there is one row for each county, with each row containing the summary value for both designated and not designated tracts.

The two commands pivot_wider() and pivot_longer() are useful for reshaping our data. pivot_wider() essentially adds columns to a dataset by transitioning content from rows to columns. pivot_longer() does the opposite - it makes a dataset longer by transitioning columns to rows.

In our case, let’s use pivot_wider() to transition our Designated and Not Designated rows into columns.

ozs |> 
  group_by(state, DesignatedOZ) |> 
  summarise(
    Income = mean(medhhincome, na.rm=TRUE)) |> 
  pivot_wider(names_from = DesignatedOZ, values_from = Income)

# A tibble: 57 × 3
# Groups:   state [57]
   state                Designated `Not Designated`
   <chr>                     <dbl>            <dbl>
 1 Alabama                  30044.           36542.
 2 Alaska                   49840.           54784.
 3 American Samoa             NaN               NA 
 4 Arizona                  34373.           40961.
 5 Arkansas                 31254.           37814.
 6 California               36134.           50858.
 7 Colorado                 41138.           49601.
 8 Connecticut              36760.           51389.
 9 Delaware                 40971.           50143.
10 District of Columbia     38291.           62840.
# ℹ 47 more rows

That makes it easier to calculate and show the difference in income between designated and not designated tracts:

ozs |> 
  group_by(state, DesignatedOZ) |> 
  summarise(
    Income = mean(medhhincome, na.rm=TRUE)) |> 
  pivot_wider(names_from = DesignatedOZ, values_from = Income) |> 
  mutate(Difference = Designated - `Not Designated`)

# A tibble: 57 × 4
# Groups:   state [57]
   state                Designated `Not Designated` Difference
   <chr>                     <dbl>            <dbl>      <dbl>
 1 Alabama                  30044.           36542.     -6498.
 2 Alaska                   49840.           54784.     -4944.
 3 American Samoa             NaN               NA        NaN 
 4 Arizona                  34373.           40961.     -6588.
 5 Arkansas                 31254.           37814.     -6560.
 6 California               36134.           50858.    -14724.
 7 Colorado                 41138.           49601.     -8463.
 8 Connecticut              36760.           51389.    -14628.
 9 Delaware                 40971.           50143.     -9172.
10 District of Columbia     38291.           62840.    -24548.
# ℹ 47 more rows
…
An additional note to the code above is that we selected several continuous variables that we want to inspect, and removed NA values (use = "complete.obs") so that the correlation values can be correctly calculated.

What can we do if we are interested in statistical associations between categorical variables? The typical approach is to use a chi-squared test (see the chisq.test function in the stats package) in conjunction with visual tools like barcharts. We won’t delve deeply into the statistical aspect, but we will learn the useful bar plots for displaying summary statistics of categorical data.

Bar plot

In the following code, you can see our familiar group_by + summarise process used to calculate the average median house income by county in Massachusetts. This summarized table is then piped to ggplot() for visualization.

ozs_ma |> 
  group_by(county, DesignatedOZ) |>  
  summarise(
    Tracts = n(),
    Income = mean(medhhincome, na.rm=TRUE)) 

# A tibble: 25 × 4
# Groups:   county [13]
   county            DesignatedOZ   Tracts Income
   <chr>             <chr>           <int>  <dbl>
 1 Barnstable County Designated          6 46717.
 2 Barnstable County Not Designated     22 61663.
 3 Berkshire County  Designated          6 35199 
 4 Berkshire County  Not Designated     15 51122.
 5 Bristol County    Designated         12 34573.
 6 Bristol County    Not Designated     59 42035.
 7 Dukes County      Not Designated      1 46816 
 8 Essex County      Designated         20 41358.
 9 Essex County      Not Designated     50 49966.
10 Franklin County   Designated          7 41711.
# ℹ 15 more rows
…
